dump.vcd
$date
Fri Mar 13 03:14:30 2026
$end
$version
Riviera-PRO Version 2025.04.139.9738
$end
$timescale
1 ps
$end

$scope module tb $end
$var reg 1 ! clk $end

$scope module vif $end
$var reg 1 " rst $end
$var reg 8 # a [7:0] $end
$var reg 8 $ b [7:0] $end
$var reg 4 % opcode [3:0] $end
$var reg 8 & result [7:0] $end
$var reg 1 ' zero_flag $end
$var reg 1 ( carry_flag $end
$var reg 1 ) overflow_flag $end
$upscope $end


$scope module dut $end
$var wire 1 * clk $end
$var wire 1 + rst $end
$var wire 8 , a [7:0] $end
$var wire 8 - b [7:0] $end
$var wire 4 . opcode [3:0] $end
$var reg 8 / result [7:0] $end
$var reg 1 0 zero_flag $end
$var reg 1 1 carry_flag $end
$var reg 1 2 overflow_flag $end
$var reg 8 3 res_comb [7:0] $end
$var reg 1 4 carry_comb $end
$var reg 1 5 overflow_comb $end
$var reg 9 6 temp [8:0] $end
$upscope $end

$upscope $end

$enddefinitions $end
$dumpvars
0!
1"
b0 #
b0 $
b0 %
bx &
x'
x(
x)
0*
1+
b0 ,
b0 -
b0 .
bx /
x0
x1
x2
b0 3
04
05
b0 6
$end
#5
1!
1*
b0 /
00
01
02
b0 &
0'
0(
0)
#10
0!
0*
b11111111 #
b11111111 $
b11111111 -
b11111111 ,
b111111110 6
b11111110 3
14
#15
1!
1*
#20
0"
0!
0*
0+
b0 #
b0 $
b0 -
b0 ,
b0 3
04
b0 6
#25
1!
1*
10
1'
#30
0!
0*
b11111111 #
b11111111 ,
b11111111 6
b11111111 3
#35
1!
1*
b11111111 /
00
b11111111 &
0'
#40
0!
0*
b0 #
b11111111 $
b11111111 -
b0 ,
b11111111 3
b11111111 6
#45
1!
1*
#50
0!
0*
b11111111 #
b1 %
b1 .
b11111111 ,
b0 3
b0 6
#55
1!
1*
b0 /
10
b0 &
1'
#60
0!
0*
b0 #
b0 $
b0 -
b0 ,
#65
1!
1*
#70
0!
0*
b11111111 #
b11111111 ,
b11111111 6
b11111111 3
#75
1!
1*
b11111111 /
00
b11111111 &
0'
#80
0!
0*
b0 #
b11111111 $
b11111111 -
b0 ,
b1 3
b100000001 6
14
#85
1!
1*
b1 /
11
b1 &
1(
#90
0!
0*
b11111111 #
b10 %
b10 .
b11111111 ,
b11111111 3
04
b0 6
#95
1!
1*
b11111111 /
01
b11111111 &
0(
#100
0!
0*
b0 #
b0 $
b0 -
b0 ,
b0 3
#105
1!
1*
b0 /
10
b0 &
1'
#110
0!
0*
b11111111 #
b11111111 ,
#115
1!
1*
#120
0!
0*
b0 #
b11111111 $
b11111111 -
b0 ,
#125
1!
1*
#130
0!
0*
b11111111 #
b11 %
b11 .
b11111111 ,
b11111111 3
#135
1!
1*
b11111111 /
00
b11111111 &
0'
#140
0!
0*
b0 #
b0 $
b0 -
b0 ,
b0 3
#145
1!
1*
b0 /
10
b0 &
1'
#150
0!
0*
b11111111 #
b11111111 ,
b11111111 3
#155
1!
1*
b11111111 /
00
b11111111 &
0'
#160
0!
0*
b0 #
b11111111 $
b11111111 -
b0 ,
b11111111 3
#165
1!
1*
#170
0!
0*
b11111111 #
b100 %
b100 .
b11111111 ,
b0 3
#175
1!
1*
b0 /
10
b0 &
1'
#180
0!
0*
b0 #
b0 $
b0 -
b0 ,
#185
1!
1*
#190
0!
0*
b11111111 #
b11111111 ,
b11111111 3
#195
1!
1*
b11111111 /
00
b11111111 &
0'
#200
0!
0*
b0 #
b11111111 $
b11111111 -
b0 ,
b11111111 3
#205
1!
1*
#210
0!
0*
b11111111 #
b101 %
b101 .
b11111111 ,
b0 3
#215
1!
1*
b0 /
10
b0 &
1'
#220
0!
0*
b0 #
b0 $
b0 -
b0 ,
b11111111 3
#225
1!
1*
b11111111 /
00
b11111111 &
0'
#230
0!
0*
b11111111 #
b11111111 ,
b0 3
#235
1!
1*
b0 /
10
b0 &
1'
#240
0!
0*
b0 #
b11111111 $
b11111111 -
b0 ,
b11111111 3
#245
1!
1*
b11111111 /
00
b11111111 &
0'
#250
0!
0*
b11111111 #
b110 %
b110 .
b11111111 ,
b0 3
#255
1!
1*
b0 /
10
b0 &
1'
#260
0!
0*
b0 #
b0 $
b0 -
b0 ,
b11111111 3
#265
1!
1*
b11111111 /
00
b11111111 &
0'
#270
0!
0*
b11111111 #
b11111111 ,
b11111111 3
#275
1!
1*
#280
0!
0*
b0 #
b11111111 $
b11111111 -
b0 ,
b11111111 3
#285
1!
1*
#290
0!
0*
b11111111 #
b111 %
b111 .
b11111111 ,
b0 3
#295
1!
1*
b0 /
10
b0 &
1'
#300
0!
0*
b0 #
b0 $
b0 -
b0 ,
b11111111 3
#305
1!
1*
b11111111 /
00
b11111111 &
0'
#310
0!
0*
b11111111 #
b11111111 ,
b0 3
#315
1!
1*
b0 /
10
b0 &
1'
#320
0!
0*
b0 #
b11111111 $
b11111111 -
b0 ,
#325
1!
1*
#330
0!
0*
b11111111 #
b1000 %
b1000 .
b11111111 ,
b11111110 3
14
#335
1!
1*
b11111110 /
00
11
b11111110 &
0'
1(
#340
0!
0*
b0 #
b0 $
b0 -
b0 ,
b0 3
04
#345
1!
1*
b0 /
10
01
b0 &
1'
0(
#350
0!
0*
b11111111 #
b11111111 ,
b11111110 3
14
#355
1!
1*
b11111110 /
00
11
b11111110 &
0'
1(
#360
0!
0*
b0 #
b11111111 $
b11111111 -
b0 ,
b0 3
04
#365
1!
1*
b0 /
10
01
b0 &
1'
0(
#370
0!
0*
b11111111 #
b1001 %
b1001 .
b11111111 ,
b1111111 3
14
#375
1!
1*
b1111111 /
00
11
b1111111 &
0'
1(
#380
0!
0*
b0 #
b0 $
b0 -
b0 ,
b0 3
04
#385
1!
1*
b0 /
10
01
b0 &
1'
0(
#390
0!
0*
b11111111 #
b11111111 ,
b1111111 3
14
#395
1!
1*
b1111111 /
00
11
b1111111 &
0'
1(
#400
0!
0*
b0 #
b11111111 $
b11111111 -
b0 ,
b0 3
04
#405
1!
1*
b0 /
10
01
b0 &
1'
0(
#410
0!
0*
b1110 #
b11010101 $
b0 %
b0 .
b11010101 -
b1110 ,
b11100011 6
b11100011 3
#415
1!
1*
b11100011 /
00
b11100011 &
0'
#420
0!
0*
b1110110 #
b11000101 $
b11000101 -
b1110110 ,
b111011 3
b100111011 6
14
#425
1!
1*
b111011 /
11
b111011 &
1(
#430
0!
0*
b111000 #
b10001000 $
b10001000 -
b111000 ,
b11000000 3
04
b11000000 6
#435
1!
1*
b11000000 /
01
b11000000 &
0(
#440
0!
0*
b11100100 #
b10101100 $
b10101100 -
b11100100 ,
b10010000 3
b110010000 6
14
#445
1!
1*
b10010000 /
11
b10010000 &
1(
#450
0!
0*
b11001111 #
b11101101 $
b11101101 -
b11001111 ,
b10111100 3
14
b110111100 6
#455
1!
1*
b10111100 /
b10111100 &
#460
0!
0*
b1000001 #
b11001000 $
b11001000 -
b1000001 ,
b1001 3
14
b100001001 6
#465
1!
1*
b1001 /
b1001 &
#470
0!
0*
b10111110 #
b10101101 $
b10101101 -
b10111110 ,
b1101011 3
14
b101101011 6
15
#475
1!
1*
b1101011 /
12
b1101011 &
1)
#480
0!
0*
b10100110 #
b11000111 $
b11000111 -
b10100110 ,
b1101101 3
14
15
b101101101 6
#485
1!
1*
b1101101 /
b1101101 &
#490
0!
0*
b11110101 #
b11 $
b11 -
b11110101 ,
b11111000 3
04
05
b11111000 6
#495
1!
1*
b11111000 /
01
02
b11111000 &
0(
0)
#500
0!
0*
b10101110 #
b1110111 $
b1110111 -
b10101110 ,
b100101 3
b100100101 6
14
#505
1!
1*
b100101 /
11
b100101 &
1(
#510
0!
0*
b11010010 #
b11010010 $
b1 %
b1 .
b11010010 -
b11010010 ,
b0 3
04
b0 6
#515
1!
1*
b0 /
10
01
b0 &
1'
0(
#520
0!
0*
b1100001 #
b111010 $
b111010 -
b1100001 ,
b100111 6
b100111 3
#525
1!
1*
b100111 /
00
b100111 &
0'
#530
0!
0*
b1011010 #
b10010001 $
b10010001 -
b1011010 ,
b11001001 3
b111001001 6
14
15
#535
1!
1*
b11001001 /
11
12
b11001001 &
1(
1)
#540
0!
0*
b10111001 #
b10010000 $
b10010000 -
b10111001 ,
b101001 3
04
05
b101001 6
#545
1!
1*
b101001 /
01
02
b101001 &
0(
0)
#550
0!
0*
b10000110 #
b10101 $
b10101 -
b10000110 ,
b1110001 3
b1110001 6
15
#555
1!
1*
b1110001 /
12
b1110001 &
1)
#560
0!
0*
b110000 #
b10010100 $
b10010100 -
b110000 ,
b10011100 3
15
b110011100 6
14
#565
1!
1*
b10011100 /
11
b10011100 &
1(
#570
0!
0*
b1101011 #
b10100111 $
b10100111 -
b1101011 ,
b11000100 3
14
15
b111000100 6
#575
1!
1*
b11000100 /
b11000100 &
#580
0!
0*
b1100110 #
b1010111 $
b1010111 -
b1100110 ,
b1111 3
04
05
b1111 6
#585
1!
1*
b1111 /
01
02
b1111 &
0(
0)
#590
0!
0*
b1111000 #
b1001001 $
b1001001 -
b1111000 ,
b101111 3
b101111 6
#595
1!
1*
b101111 /
b101111 &
#600
0!
0*
b11111 #
b1010101 $
b1010101 -
b11111 ,
b11001010 3
b111001010 6
14
#605
1!
1*
b11001010 /
11
b11001010 &
1(
#610
0!
0*
b10011 #
b11001101 $
b10 %
b10 .
b11001101 -
b10011 ,
b1 3
04
b0 6
#615
1!
1*
b1 /
01
b1 &
0(
#620
0!
0*
b10101011 #
b1000011 $
b1000011 -
b10101011 ,
b11 3
#625
1!
1*
b11 /
b11 &
#630
0!
0*
b11001101 #
b11111101 $
b11111101 -
b11001101 ,
b11001101 3
#635
1!
1*
b11001101 /
b11001101 &
#640
0!
0*
b10011100 #
b11100000 $
b11100000 -
b10011100 ,
b10000000 3
#645
1!
1*
b10000000 /
b10000000 &
#650
0!
0*
b1110000 #
b10110010 $
b10110010 -
b1110000 ,
b110000 3
#655
1!
1*
b110000 /
b110000 &
#660
0!
0*
b10011110 #
b1101 $
b1101 -
b10011110 ,
b1100 3
#665
1!
1*
b1100 /
b1100 &
#670
0!
0*
b10001100 #
b1010010 $
b1010010 -
b10001100 ,
b0 3
#675
1!
1*
b0 /
10
b0 &
1'
#680
0!
0*
b10010001 #
b10111011 $
b10111011 -
b10010001 ,
b10010001 3
#685
1!
1*
b10010001 /
00
b10010001 &
0'
#690
0!
0*
b1000111 #
b1110101 $
b1110101 -
b1000111 ,
b1000101 3
#695
1!
1*
b1000101 /
b1000101 &
#700
0!
0*
b101001 #
b1001 $
b1001 -
b101001 ,
b1001 3
#705
1!
1*
b1001 /
b1001 &
#710
0!
0*
b1101010 #
b11000110 $
b11 %
b11 .
b11000110 -
b1101010 ,
b11101110 3
#715
1!
1*
b11101110 /
b11101110 &
#720
0!
0*
b10000110 #
b1110011 $
b1110011 -
b10000110 ,
b11110111 3
#725
1!
1*
b11110111 /
b11110111 &
#730
0!
0*
b11000101 #
b111001 $
b111001 -
b11000101 ,
b11111101 3
#735
1!
1*
b11111101 /
b11111101 &
#740
0!
0*
b11000111 #
b10100100 $
b10100100 -
b11000111 ,
b11100111 3
#745
1!
1*
b11100111 /
b11100111 &
#750
0!
0*
b10101110 #
b111 $
b111 -
b10101110 ,
b10101111 3
#755
1!
1*
b10101111 /
b10101111 &
#760
0!
0*
b100011 #
b10001011 $
b10001011 -
b100011 ,
b10101011 3
#765
1!
1*
b10101011 /
b10101011 &
#770
0!
0*
b11001 #
b10100000 $
b10100000 -
b11001 ,
b10111001 3
#775
1!
1*
b10111001 /
b10111001 &
#780
0!
0*
b110 #
b10001 $
b10001 -
b110 ,
b10111 3
#785
1!
1*
b10111 /
b10111 &
#790
0!
0*
b10010 #
b10001101 $
b10001101 -
b10010 ,
b10011111 3
#795
1!
1*
b10011111 /
b10011111 &
#800
0!
0*
b111110 #
b10010 $
b10010 -
b111110 ,
b111110 3
#805
1!
1*
b111110 /
b111110 &
#810
0!
0*
b10001101 #
b10100010 $
b100 %
b100 .
b10100010 -
b10001101 ,
b101111 3
#815
1!
1*
b101111 /
b101111 &
#820
0!
0*
b10101000 #
b1010110 $
b1010110 -
b10101000 ,
b11111110 3
#825
1!
1*
b11111110 /
b11111110 &
#830
0!
0*
b10010101 #
b11100001 $
b11100001 -
b10010101 ,
b1110100 3
#835
1!
1*
b1110100 /
b1110100 &
#840
0!
0*
b1001001 #
b10001110 $
b10001110 -
b1001001 ,
b11000111 3
#845
1!
1*
b11000111 /
b11000111 &
#850
0!
0*
b1000011 #
b10010110 $
b10010110 -
b1000011 ,
b11010101 3
#855
1!
1*
b11010101 /
b11010101 &
#860
0!
0*
b11110 #
b1010 $
b1010 -
b11110 ,
b10100 3
#865
1!
1*
b10100 /
b10100 &
#870
0!
0*
b111 #
b1000011 $
b1000011 -
b111 ,
b1000100 3
#875
1!
1*
b1000100 /
b1000100 &
#880
0!
0*
b11001011 #
b101010 $
b101010 -
b11001011 ,
b11100001 3
#885
1!
1*
b11100001 /
b11100001 &
#890
0!
0*
b10001011 #
b10001010 $
b10001010 -
b10001011 ,
b1 3
#895
1!
1*
b1 /
b1 &
#900
0!
0*
b10110000 #
b1000010 $
b1000010 -
b10110000 ,
b11110010 3
#905
1!
1*
b11110010 /
b11110010 &
#910
0!
0*
b11111101 #
b1011111 $
b101 %
b101 .
b1011111 -
b11111101 ,
b10 3
#915
1!
1*
b10 /
b10 &
#920
0!
0*
b111 #
b11000000 $
b11000000 -
b111 ,
b11111000 3
#925
1!
1*
b11111000 /
b11111000 &
#930
0!
0*
b10101001 #
b1101101 $
b1101101 -
b10101001 ,
b1010110 3
#935
1!
1*
b1010110 /
b1010110 &
#940
0!
0*
b10011100 #
b10010011 $
b10010011 -
b10011100 ,
b1100011 3
#945
1!
1*
b1100011 /
b1100011 &
#950
0!
0*
b11100001 #
b10011101 $
b10011101 -
b11100001 ,
b11110 3
#955
1!
1*
b11110 /
b11110 &
#960
0!
0*
b101110 #
b11000001 $
b11000001 -
b101110 ,
b11010001 3
#965
1!
1*
b11010001 /
b11010001 &
#970
0!
0*
b10111000 #
b11010001 $
b11010001 -
b10111000 ,
b1000111 3
#975
1!
1*
b1000111 /
b1000111 &
#980
0!
0*
b1101000 #
b10000101 $
b10000101 -
b1101000 ,
b10010111 3
#985
1!
1*
b10010111 /
b10010111 &
#990
0!
0*
b11100101 #
b1110010 $
b1110010 -
b11100101 ,
b11010 3
#995
1!
1*
b11010 /
b11010 &
#1000
0!
0*
b1001111 #
b11100000 $
b11100000 -
b1001111 ,
b10110000 3
#1005
1!
1*
b10110000 /
b10110000 &
#1010
0!
0*
b10110010 #
b10110 $
b110 %
b110 .
b10110 -
b10110010 ,
b11101101 3
#1015
1!
1*
b11101101 /
b11101101 &
#1020
0!
0*
b10111 #
b11100001 $
b11100001 -
b10111 ,
b11111110 3
#1025
1!
1*
b11111110 /
b11111110 &
#1030
0!
0*
b1000111 #
b1100011 $
b1100011 -
b1000111 ,
b10111100 3
#1035
1!
1*
b10111100 /
b10111100 &
#1040
0!
0*
b1100101 #
b1011010 $
b1011010 -
b1100101 ,
b10111111 3
#1045
1!
1*
b10111111 /
b10111111 &
#1050
0!
0*
b11100110 #
b11011010 $
b11011010 -
b11100110 ,
b111101 3
#1055
1!
1*
b111101 /
b111101 &
#1060
0!
0*
b10001010 #
b10111011 $
b10111011 -
b10001010 ,
b1110101 3
#1065
1!
1*
b1110101 /
b1110101 &
#1070
0!
0*
b1001101 #
b11111010 $
b11111010 -
b1001101 ,
b10110111 3
#1075
1!
1*
b10110111 /
b10110111 &
#1080
0!
0*
b110010 #
b1001100 $
b1001100 -
b110010 ,
b11111111 3
#1085
1!
1*
b11111111 /
b11111111 &
#1090
0!
0*
b1100111 #
b110011 $
b110011 -
b1100111 ,
b11011100 3
#1095
1!
1*
b11011100 /
b11011100 &
#1100
0!
0*
b1111011 #
b11110100 $
b11110100 -
b1111011 ,
b10001111 3
#1105
1!
1*
b10001111 /
b10001111 &
#1110
0!
0*
b10110010 #
b10101101 $
b111 %
b111 .
b10101101 -
b10110010 ,
b1000000 3
#1115
1!
1*
b1000000 /
b1000000 &
#1120
0!
0*
b11101 #
b10100100 $
b10100100 -
b11101 ,
b1000010 3
#1125
1!
1*
b1000010 /
b1000010 &
#1130
0!
0*
b1000000 #
b1100101 $
b1100101 -
b1000000 ,
b10011010 3
#1135
1!
1*
b10011010 /
b10011010 &
#1140
0!
0*
b11000000 #
b110111 $
b110111 -
b11000000 ,
b1000 3
#1145
1!
1*
b1000 /
b1000 &
#1150
0!
0*
b110110 #
b10 $
b10 -
b110110 ,
b11001001 3
#1155
1!
1*
b11001001 /
b11001001 &
#1160
0!
0*
b101001 #
b11101110 $
b11101110 -
b101001 ,
b10000 3
#1165
1!
1*
b10000 /
b10000 &
#1170
0!
0*
b10000100 #
b1101100 $
b1101100 -
b10000100 ,
b10011 3
#1175
1!
1*
b10011 /
b10011 &
#1180
0!
0*
b11101100 #
b1011000 $
b1011000 -
b11101100 ,
b11 3
#1185
1!
1*
b11 /
b11 &
#1190
0!
0*
b11011010 #
b1011011 $
b1011011 -
b11011010 ,
b100100 3
#1195
1!
1*
b100100 /
b100100 &
#1200
0!
0*
b10001100 #
b1001 $
b1001 -
b10001100 ,
b1110010 3
#1205
1!
1*
b1110010 /
b1110010 &
#1210
0!
0*
b11001100 #
b10101010 $
b1000 %
b1000 .
b10101010 -
b11001100 ,
b10011000 3
14
#1215
1!
1*
b10011000 /
11
b10011000 &
1(
#1220
0!
0*
b1011111 #
b10001000 $
b10001000 -
b1011111 ,
b10111110 3
04
#1225
1!
1*
b10111110 /
01
b10111110 &
0(
#1230
0!
0*
b101011 #
b11000000 $
b11000000 -
b101011 ,
b1010110 3
#1235
1!
1*
b1010110 /
b1010110 &
#1240
0!
0*
b10100010 #
b11000101 $
b11000101 -
b10100010 ,
b1000100 3
14
#1245
1!
1*
b1000100 /
11
b1000100 &
1(
#1250
0!
0*
b11001010 #
b1101 $
b1101 -
b11001010 ,
b10010100 3
14
#1255
1!
1*
b10010100 /
b10010100 &
#1260
0!
0*
b10110 #
b1010011 $
b1010011 -
b10110 ,
b101100 3
04
#1265
1!
1*
b101100 /
01
b101100 &
0(
#1270
0!
0*
b1010100 #
b10101100 $
b10101100 -
b1010100 ,
b10101000 3
#1275
1!
1*
b10101000 /
b10101000 &
#1280
0!
0*
b111100 #
b10000100 $
b10000100 -
b111100 ,
b1111000 3
#1285
1!
1*
b1111000 /
b1111000 &
#1290
0!
0*
b10111101 #
b10010001 $
b10010001 -
b10111101 ,
b1111010 3
14
#1295
1!
1*
b1111010 /
11
b1111010 &
1(
#1300
0!
0*
b11110100 #
b1101000 $
b1101000 -
b11110100 ,
b11101000 3
14
#1305
1!
1*
b11101000 /
b11101000 &
#1310
0!
0*
b10000110 #
b10010010 $
b1001 %
b1001 .
b10010010 -
b10000110 ,
b1000011 3
04
#1315
1!
1*
b1000011 /
01
b1000011 &
0(
#1320
0!
0*
b10011010 #
b11101 $
b11101 -
b10011010 ,
b1001101 3
#1325
1!
1*
b1001101 /
b1001101 &
#1330
0!
0*
b11010010 #
b10001100 $
b10001100 -
b11010010 ,
b1101001 3
#1335
1!
1*
b1101001 /
b1101001 &
#1340
0!
0*
b101101 #
b1000 $
b1000 -
b101101 ,
b10110 3
14
#1345
1!
1*
b10110 /
11
b10110 &
1(
#1350
0!
0*
b1100011 #
b1111101 $
b1111101 -
b1100011 ,
b110001 3
14
#1355
1!
1*
b110001 /
b110001 &
#1360
0!
0*
b10101111 #
b11110110 $
b11110110 -
b10101111 ,
b1010111 3
14
#1365
1!
1*
b1010111 /
b1010111 &
#1370
0!
0*
b1101011 #
b1110100 $
b1110100 -
b1101011 ,
b110101 3
14
#1375
1!
1*
b110101 /
b110101 &
#1380
0!
0*
b11001000 #
b10111110 $
b10111110 -
b11001000 ,
b1100100 3
04
#1385
1!
1*
b1100100 /
01
b1100100 &
0(
#1390
0!
0*
b11101110 #
b1000 $
b1000 -
b11101110 ,
b1110111 3
#1395
1!
1*
b1110111 /
b1110111 &
#1400
0!
0*
b10010 #
b11110110 $
b11110110 -
b10010 ,
b1001 3
#1405
1!
1*
b1001 /
b1001 &
#1410
0!
0*
#1415
1!
1*
#1420
0!
0*
#1425
1!
1*
#1430
0!
0*
#1435
1!
1*
#1440
0!
0*
b11001101 #
b1010 $
b100 %
b100 .
b1010 -
b11001101 ,
b11000111 3
#1445
1!
1*
b11000111 /
b11000111 &
#1450
0!
0*
b11100010 #
b1011100 $
b1 %
b1 .
b1011100 -
b11100010 ,
b10000110 3
b10000110 6
#1455
1!
1*
b10000110 /
b10000110 &
#1460
0!
0*
b1000010 #
b1101111 $
b110 %
b110 .
b1101111 -
b1000010 ,
b10111101 3
b0 6
#1465
1!
1*
b10111101 /
b10111101 &
#1470
0!
0*
b10001111 #
b1111100 $
b1111100 -
b10001111 ,
b11110011 3
#1475
1!
1*
b11110011 /
b11110011 &
#1480
0!
0*
b10011001 #
b1110100 $
b1001 %
b1001 .
b1110100 -
b10011001 ,
b1001100 3
14
#1485
1!
1*
b1001100 /
11
b1001100 &
1(
#1490
0!
0*
b1001000 #
b110100 $
b0 %
b0 .
b110100 -
b1001000 ,
b1111100 3
04
b1111100 6
#1495
1!
1*
b1111100 /
01
b1111100 &
0(
#1500
0!
0*
b10011101 #
b10110111 $
b101 %
b101 .
b10110111 -
b10011101 ,
b1100010 3
b0 6
#1505
1!
1*
b1100010 /
b1100010 &
#1510
0!
0*
b11100110 #
b10100011 $
b10100011 -
b11100110 ,
b11001 3
#1515
1!
1*
b11001 /
b11001 &
#1520
0!
0*
b11010111 #
b10000111 $
b11 %
b11 .
b10000111 -
b11010111 ,
b11010111 3
#1525
1!
1*
b11010111 /
b11010111 &
#1530
0!
0*
b11011001 #
b10110 $
b0 %
b0 .
b10110 -
b11011001 ,
b11101111 3
b11101111 6
#1535
1!
1*
b11101111 /
b11101111 &
#1540
0!
0*
b10011101 #
b10100111 $
b10100111 -
b10011101 ,
b1000100 3
b101000100 6
14
15
#1545
1!
1*
b1000100 /
11
12
b1000100 &
1(
1)
#1550
0!
0*
b11100000 #
b10000011 $
b1001 %
b1001 .
b10000011 -
b11100000 ,
b1110000 3
04
05
b0 6
#1555
1!
1*
b1110000 /
01
02
b1110000 &
0(
0)
#1560
0!
0*
b10110100 #
b1011 $
b100 %
b100 .
b1011 -
b10110100 ,
b10111111 3
#1565
1!
1*
b10111111 /
b10111111 &
#1570
0!
0*
b11110010 #
b11111 $
b111 %
b111 .
b11111 -
b11110010 ,
b0 3
#1575
1!
1*
b0 /
10
b0 &
1'
#1580
0!
0*
b11100011 #
b10001110 $
b0 %
b0 .
b10001110 -
b11100011 ,
b101110001 6
b1110001 3
14
15
#1585
1!
1*
b1110001 /
00
11
12
b1110001 &
0'
1(
1)
#1590
0!
0*
b10100111 #
b10101011 $
b101 %
b101 .
b10101011 -
b10100111 ,
b1011000 3
04
05
b0 6
#1595
1!
1*
b1011000 /
01
02
b1011000 &
0(
0)
#1600
0!
0*
b11101011 #
b110011 $
b10 %
b10 .
b110011 -
b11101011 ,
b100011 3
#1605
1!
1*
b100011 /
b100011 &
#1610
0!
0*
b1111000 #
b11111001 $
b111 %
b111 .
b11111001 -
b1111000 ,
b110 3
#1615
1!
1*
b110 /
b110 &
#1620
0!
0*
b11100100 #
b11011101 $
b1001 %
b1001 .
b11011101 -
b11100100 ,
b1110010 3
#1625
1!
1*
b1110010 /
b1110010 &
#1630
0!
0*
b11111 #
b100010 $
b100 %
b100 .
b100010 -
b11111 ,
b111101 3
#1635
1!
1*
b111101 /
b111101 &
#1640
0!
0*
b1111001 #
b1101111 $
b1 %
b1 .
b1101111 -
b1111001 ,
b1010 3
b1010 6
#1645
1!
1*
b1010 /
b1010 &
#1650
0!
0*
b10011 #
b10100001 $
b101 %
b101 .
b10100001 -
b10011 ,
b11101100 3
b0 6
#1655
1!
1*
b11101100 /
b11101100 &
#1660
0!
0*
b1011011 #
b11010101 $
b11 %
b11 .
b11010101 -
b1011011 ,
b11011111 3
#1665
1!
1*
b11011111 /
b11011111 &
#1670
0!
0*
b10010101 #
b1110010 $
b100 %
b100 .
b1110010 -
b10010101 ,
b11100111 3
#1675
1!
1*
b11100111 /
b11100111 &
#1680
0!
0*
b11111101 #
b1000011 $
b11 %
b11 .
b1000011 -
b11111101 ,
b11111111 3
#1685
1!
1*
b11111111 /
b11111111 &
#1690
0!
0*
b10010100 #
b1000110 $
b0 %
b0 .
b1000110 -
b10010100 ,
b11011010 3
b11011010 6
#1695
1!
1*
b11011010 /
b11011010 &
#1700
0!
0*
b110010 #
b111010 $
b11 %
b11 .
b111010 -
b110010 ,
b111010 3
b0 6
#1705
1!
1*
b111010 /
b111010 &
#1710
0!
0*
b11100000 #
b111110 $
b111110 -
b11100000 ,
b11111110 3
#1715
1!
1*
b11111110 /
b11111110 &
#1720
0!
0*
b10100000 #
b101011 $
b0 %
b0 .
b101011 -
b10100000 ,
b11001011 3
b11001011 6
#1725
1!
1*
b11001011 /
b11001011 &
#1730
0!
0*
b10110110 #
b1000 $
b1 %
b1 .
b1000 -
b10110110 ,
b10101110 3
b10101110 6
#1735
1!
1*
b10101110 /
b10101110 &
#1740
0!
0*
b1011110 #
b10100111 $
b111 %
b111 .
b10100111 -
b1011110 ,
b0 3
b0 6
#1745
1!
1*
b0 /
10
b0 &
1'
#1750
0!
0*
b10001011 #
b11011000 $
b0 %
b0 .
b11011000 -
b10001011 ,
b101100011 6
b1100011 3
14
15
#1755
1!
1*
b1100011 /
00
11
12
b1100011 &
0'
1(
1)
#1760
0!
0*
b101 #
b10011001 $
b1 %
b1 .
b10011001 -
b101 ,
b1101100 3
14
05
b101101100 6
#1765
1!
1*
b1101100 /
02
b1101100 &
0)
#1770
0!
0*
b10110101 #
b10001101 $
b11 %
b11 .
b10001101 -
b10110101 ,
b10111101 3
04
b0 6
#1775
1!
1*
b10111101 /
01
b10111101 &
0(
#1780
0!
0*
b10 #
b101101 $
b1001 %
b1001 .
b101101 -
b10 ,
b1 3
#1785
1!
1*
b1 /
b1 &
#1790
0!
0*
b11100011 #
b10010001 $
b10 %
b10 .
b10010001 -
b11100011 ,
b10000001 3
#1795
1!
1*
b10000001 /
b10000001 &
#1800
0!
0*
b11001010 #
b11100111 $
b0 %
b0 .
b11100111 -
b11001010 ,
b10110001 3
b110110001 6
14
#1805
1!
1*
b10110001 /
11
b10110001 &
1(
#1810
0!
0*
b11110001 #
b11111001 $
b10 %
b10 .
b11111001 -
b11110001 ,
b11110001 3
04
b0 6
#1815
1!
1*
b11110001 /
01
b11110001 &
0(
#1820
0!
0*
b10101111 #
b10001 $
b110 %
b110 .
b10001 -
b10101111 ,
b11111110 3
#1825
1!
1*
b11111110 /
b11111110 &
#1830
0!
0*
b11001110 #
b1100111 $
b1001 %
b1001 .
b1100111 -
b11001110 ,
b1100111 3
#1835
1!
1*
b1100111 /
b1100111 &
#1840
0!
0*
b10101100 #
b10000011 $
b100 %
b100 .
b10000011 -
b10101100 ,
b101111 3
#1845
1!
1*
b101111 /
b101111 &
#1850
0!
0*
b1100 #
b11010111 $
b1001 %
b1001 .
b11010111 -
b1100 ,
b110 3
#1855
1!
1*
b110 /
b110 &
#1860
0!
0*
b1 #
b1001010 $
b11 %
b11 .
b1001010 -
b1 ,
b1001011 3
#1865
1!
1*
b1001011 /
b1001011 &
#1870
0!
0*
b1111111 #
b11011100 $
b0 %
b0 .
b11011100 -
b1111111 ,
b1011011 3
b101011011 6
14
#1875
1!
1*
b1011011 /
11
b1011011 &
1(
#1880
0!
0*
b1000100 #
b1100010 $
b1001 %
b1001 .
b1100010 -
b1000100 ,
b100010 3
04
b0 6
#1885
1!
1*
b100010 /
01
b100010 &
0(
#1890
0!
0*
b1110011 #
b11010001 $
b11 %
b11 .
b11010001 -
b1110011 ,
b11110011 3
#1895
1!
1*
b11110011 /
b11110011 &
#1900
0!
0*
b1110000 #
b11001110 $
b111 %
b111 .
b11001110 -
b1110000 ,
b1 3
#1905
1!
1*
b1 /
b1 &
#1910
0!
0*
b1001100 #
b110110 $
b1000 %
b1000 .
b110110 -
b1001100 ,
b10011000 3
#1915
1!
1*
b10011000 /
b10011000 &
#1920
0!
0*
b11010101 #
b10101001 $
b0 %
b0 .
b10101001 -
b11010101 ,
b1111110 3
b101111110 6
14
15
#1925
1!
1*
b1111110 /
11
12
b1111110 &
1(
1)
#1930
0!
0*
b10100101 #
b101101 $
b101 %
b101 .
b101101 -
b10100101 ,
b1011010 3
04
05
b0 6
#1935
1!
1*
b1011010 /
01
02
b1011010 &
0(
0)
